QuEChERS-EMR UHPLC-MS/MS for analysis of polyphenols in fatty matrices
…
# cleanup and put in order sample prep step names 
d.recovery$validation = d.recovery$validation %>% str_remove(pattern = "recovery" %R% DOT)

d.recovery$validation = 
  d.recovery$validation %>% factor(
    levels = d.recovery$validation %>% unique() %>% rev(),
    ordered = T)

# check outlier numbers
d.badRecovery = d.recovery %>% filter(mean > 200 | std > 50 | std < 0 )
d.badRecovery

## # A tibble: 28 x 6
##    matrix  validation       IScorrection compound   mean     std
##    <chr>   <ord>            <chr>        <chr>     <dbl>   <dbl>
##  1 Avocado Overall recovery F            4-HCA     1213.  4953. 
##  2 Avocado Overall recovery F            FA       -1101. -7884. 
##  3 Avocado Overall recovery T            4-HBA      133.    54.5
##  4 Avocado Overall recovery T            CA         255.  1249. 
##  5 Avocado Drying           F            4-HCA      553.  2294. 
##  6 Avocado Drying           F            CA         117.    97.3
##  7 Avocado Drying           F            FA        -524. -3814. 
##  8 Avocado Drying           T            4-HCA      120.    56.2
##  9 Avocado Drying           T            CA         185.   978. 
## 10 Avocado Drying           T            FA         126.    75.1
## # … with 18 more rows
…
x = d.opt.pct %>% filter(solvent.pct == "ctrl") %>%
  group_by(compound) %>%
  summarise(resp.ctrl.mean = mean(resp),resp.ctrl.sd = sd(resp))

y = d.opt.pct %>% filter(solvent.pct != "ctrl") %>%
  group_by(solvent.pct, compound) %>%
  summarise(resp.mean = mean(resp), resp.sd = sd(resp))

d.opt.pct.recovery = y %>% left_join(x, by = c("compound")) %>%
  mutate(recovery.mean = resp.mean / resp.ctrl.mean * 100,
         recovery.sd = sqrt((resp.sd/resp.mean)^2 + (resp.ctrl.sd/resp.ctrl.mean)^2) * recovery.mean  )
d.opt.pct.recovery

## # A tibble: 378 x 8
## # Groups:   solvent.pct [7]
##    solvent.pct compound               resp.mean resp.sd resp.ctrl.mean resp.ctrl.sd recovery.mean recovery.sd
##    <chr>       <chr>                      <dbl>   <dbl>          <dbl>        <dbl>         <dbl>       <dbl>
##  1 60          3-HBA                      862.     46.5          935.          99.9          92.1       11.0 
##  2 60          3-HPAA                    1101.     44.8         1258.          12.5          87.5        3.67
##  3 60          3-HPPA                    1595.     95.6         1804.         104.           88.4        7.35
##  4 60          3-HPVA                    1944.     95.2         2285.          22.4          85.1        4.25
##  5 60          3-Hydroxycinnamic acid    1857.     21.7         2090.          45.6          88.9        2.20
##  6 60          3-Hydroxyhippuric acid    1396.     41.1         1611.          46.5          86.6        3.58
##  7 60          3-Hydroxytyrosol(-)       3021.    128.          3675.         470.           82.2       11.1 
##  8 60          3-O-Me-EC                 2971.     68.6         3302.         106.           90.0        3.56
##  9 60          3,4-diHBA                  256.     63.4          374.         190.           68.5       38.7 
## 10 60          3,4-diHPAA                  27.2    13.1           48.1         28.4          56.6       43.2 
## # … with 368 more rows
…
